-42.4201214,35.2799991,3.9052295
-42.8675961,36.2499124,3.5492728
-43.1264595,37.1804490,3.0996527
-42.9147954,38.0722746,2.3702373
-42.2802442,38.8101553,2.7436653
-41.4208342,39.4306569,3.1639596
-40.4938144,39.7799929,3.5258533
-39.5050987,39.9106428,3.8741840
-38.5131820,39.8892605,4.2284078
-37.5219928,39.7940323,4.6191993
-36.5385686,39.6816684,4.9992131
-35.5412949,39.5312739,5.3697777
-34.5635324,39.3155191,5.7222310
-33.5993369,39.0335307,6.0605691
-32.6619439,38.7035222,6.3882747
-31.7310722,38.3382497,6.6941491
-30.8135335,37.9446549,6.9816418
-29.9086903,37.5251873,7.2545131
-29.0139541,37.0809772,7.5061175
-28.1316651,36.6139351,7.7373093
-27.2609469,36.1239259,7.9550153
-26.4027813,35.6117337,8.1564988
-25.5584212,35.0786654,8.3484245
-24.7260400,34.5251787,8.5370664
-23.9061169,33.9537413,8.7231530
-23.0982395,33.3664210,8.9062412
-22.3010992,32.7641553,9.0873847
-21.5140194,32.1482518,9.2662009
-20.7371045,31.5208012,9.4424955
-19.9684229,30.8824115,9.6193551
-19.2069915,30.2349963,9.7973386
-18.4517931,29.5814689,9.9827778
-17.6991352,28.9242164,10.0118908
-16.9458693,28.2674382,9.8211953
-16.1885160,27.6162569,9.3565751
-15.4218869,26.9754515,8.8736440
-14.6421686,26.3504665,8.4042304
-13.8466700,25.7463098,7.9391752
-13.0329119,25.1669904,7.4733173
-12.1989622,24.6166254,7.0051024
-11.3438074,24.1003408,6.5311582
-10.4658707,23.6264918,6.0508289
-9.5640654,23.1971310,5.5591874
-8.6309055,22.8008328,5.0701297
-7.6821382,22.4595602,4.5674004
-6.7286114,22.2239513,4.0231594
-5.7440082,22.1989695,3.6044426
-4.7900403,22.4506555,3.2524038
-3.8987838,22.9489395,3.0983458
-3.2102241,23.6569706,3.1586116
-2.7789758,24.5464151,3.4011106
-2.5710063,25.5202733,3.6575999
-2.5514656,26.5146807,3.8824714
-2.6943933,27.5078059,4.1603005
-2.9684421,28.4703743,4.5072949
-3.3316355,29.3975705,4.9548921
-3.7412053,30.3045164,5.4195912
-4.1697311,31.2137291,5.8741692
-4.5887661,32.1205156,6.2578419
-4.9837612,33.0421170,6.5206750
-5.3315849,33.9787582,6.7034662
-5.6169439,34.9392796,6.7459057
-5.8363210,35.9178683,6.7611596
-5.9877722,36.9002695,6.7588524
-6.0733855,37.8966315,6.7555909
-6.0919410,38.8915510,6.7670922
-6.0353952,39.8789298,6.8075492
-5.9013508,40.8751124,6.8820103
-5.7053219,41.8474775,6.9962752
-5.4503344,42.8177537,7.1308135
-5.1456459,43.7749251,7.2803765
-4.8020523,44.7146505,7.4575555
-4.4303163,45.6429846,7.6465719
-4.0371527,46.5589923,7.8478473
-3.6202758,47.4679046,8.0647710
-3.1846497,48.3666009,8.2858237
-2.7336199,49.2574406,8.5113493
-2.2698616,50.1427371,8.7327030
-1.7960869,51.0221223,8.9495411
-1.3133934,51.8966653,9.1602872
-0.8225102,52.7669775,9.3615882
-0.3243818,53.6329303,9.5578958
0.1805084,54.4950117,9.7481508
0.6916402,55.3534785,9.9300840
1.2084954,56.2084670,10.1075705
1.7306936,57.0602427,10.2796370
2.2578339,57.9089379,10.4443201
2.7896209,58.7547590,10.6049917
3.3257708,59.5978423,10.7607142
3.8660156,60.4382538,10.9096520
4.4102190,61.2761456,11.0547570
4.9582557,62.1115538,11.1950245
5.5100526,62.9444357,11.3283794
6.0656742,63.7747474,11.4578047
6.6251239,64.6025638,11.5821990
7.1880579,65.4283364,11.7019562
7.7528495,66.2535252,11.7017871
8.3173080,67.0774029,11.4847890
8.8832079,67.9025246,11.0014953
9.4449808,68.7275154,10.4990324
9.9978433,69.5587446,10.0388914
10.5324681,70.3970358,9.6596594
11.0542355,71.2441528,9.3103518
11.5680269,72.1079670,8.9891151
12.0586314,72.9801095,8.6929811
12.5205030,73.8801008,8.4051015
12.9322072,74.7912327,8.1301818
13.2990186,75.7368918,7.9421499
13.5939014,76.6611531,7.7831004
13.8192556,77.6136084,7.6359140
13.9753802,78.6150816,7.5112568
14.0605537,79.5978111,7.4237320
14.0845597,80.6167554,7.3564281
14.0502030,81.6178380,7.3223856
13.9707774,82.6245818,7.2888267
13.8553551,83.6051950,7.2579360
13.6974420,84.5923394,7.2423919
13.4835626,85.5614712,7.3289094
13.2140949,86.5232900,7.3883142
12.9066023,87.4730136,7.1863690
12.5784820,88.4147171,6.7432295
12.2485436,89.3639564,6.2328327
11.9459452,90.3179109,5.7997724
11.6983695,91.2956129,5.3802352
11.5348071,92.2756256,4.9683364
11.4755853,93.2766154,4.5563054
11.5594630,94.2656137,4.1986684
11.8271998,95.2123423,3.8787484
12.2941230,96.0991932,3.6448710
12.9351416,96.8662993,3.6344978
13.7289821,97.4809983,3.8028407
14.6236255,97.9245660,3.9632914
15.5749493,98.1863949,4.1139329
16.5718145,98.2728999,4.3018864
17.5597988,98.2102517,4.4951527
18.5412437,98.0200772,4.7278807
19.5026586,97.7235309,4.9891443
20.4285831,97.3466847,5.2823424
21.3252075,96.9048581,5.5929677
22.1921795,96.4115216,5.9103357
23.0354950,95.8757688,6.2298445
23.8561729,95.3068014,6.5408191
24.6585153,94.7097485,6.8444819
25.4438751,94.0920589,7.1354610
26.2168337,93.4600512,7.4092332
26.9790249,92.8137177,7.6698942
27.7280171,92.1524320,7.9074866
28.4622918,91.4749308,8.1038125
29.1791924,90.7783560,8.2432322
29.8736159,90.0601012,8.2194718
30.5405908,89.3159014,7.9902357
31.1734517,88.5430637,7.6650779
31.7659978,87.7387766,7.3686494
32.3123987,86.9010139,7.0829598
32.8028931,86.0324850,6.8059635
33.2325900,85.1331875,6.5490930
33.6166375,84.1934134,6.3716465
33.9561156,83.2605818,6.2586082
34.2929096,82.3052278,6.1691318
34.5638268,81.4073367,6.0918812
34.3747120,80.4320150,6.2727253
34.1026276,79.4176771,6.5486685
34.0665147,78.4213775,6.9307117
34.0930617,77.4479037,7.2707662
34.0874495,76.4495332,7.5442279
34.0918960,75.4413330,7.7425994
34.1332232,74.4486663,7.7447560
34.2248413,73.4505444,7.7002692
34.3635191,72.4584870,7.6134047
34.5370579,71.4784765,7.3369274
34.7548198,70.5020520,7.0637213
35.0248101,69.5383195,6.7944342
35.3540422,68.5914235,6.5237870
35.7478867,67.6707499,6.2526944
36.2117428,66.7856788,5.9809938
36.7582553,65.9360602,5.7116257
37.3758795,65.1544267,5.4952200
38.0615283,64.4465589,5.3893642
38.8215628,63.7998241,5.3089583
39.6268009,63.2454652,5.2647315
40.5109236,62.8198126,5.3740007
41.4871473,62.5000992,5.5832619
42.4560065,62.2739407,5.9177127
43.4592630,62.0815185,5.8336377
44.4391499,61.8936983,5.2990422
45.4396791,61.6501664,4.8302609
46.3537799,61.3067583,4.4122841
47.1799596,60.7847091,4.0735548
47.9017032,60.0995777,3.7168642
48.4668481,59.2870389,3.7387348
48.8550804,58.3621941,3.9930059
49.0744182,57.3825813,4.3662238
49.1695285,56.3886933,4.7322637
49.1745297,55.3942126,5.0989303
49.1124146,54.3989365,5.4788502
49.0029215,53.3994910,5.8747498
48.8677329,52.4156044,6.2649919
48.7175669,51.4256605,6.6393577
48.5639233,50.4352947,6.9963123
48.4171784,49.4464848,7.2774235
48.2883738,48.4530362,7.5078050
48.1900371,47.4589159,7.6497014
48.1327556,46.4556342,7.6939770
48.1262061,45.4594725,7.6941722
48.1781705,44.4627319,7.6520839
48.2949084,43.4705040,7.6034677
48.4718605,42.4921258,7.5544812
48.7051084,41.5211024,7.5074995
48.9930639,40.5666465,7.4634311
49.3360558,39.6305274,7.4218505
49.7358687,38.7132854,7.4193826
50.1870385,37.8213474,7.5280531
50.6756857,36.9527707,7.7722734
51.1817867,36.0895138,7.9661272
51.6789440,35.2218380,7.9844322
52.1474925,34.3432701,7.7422486
52.5854181,33.4406638,7.4428760
52.9824020,32.5229924,7.1705153
53.3308116,31.5769551,6.9092766
53.6124113,30.6237138,6.6635894
53.8257259,29.6340919,6.5361961
53.9589771,28.6423851,6.4166996
54.0040800,27.6676970,6.3140379
53.9542602,26.6769420,6.2430294
53.8121608,25.6877591,6.2242775
53.5880714,24.7204909,6.2418189
53.2820862,23.7561957,6.2770730
52.9087382,22.8274931,6.3340588
52.4711736,21.9223026,6.4371386
51.9823483,21.0544572,6.5655970
51.4417396,20.2123663,6.7404249
50.8587637,19.4016327,6.9444072
50.2407270,18.6203536,7.1701268
49.5917354,17.8604093,7.4245937
48.9255513,17.1209475,7.6908085
48.2465343,16.3882706,7.9618996
47.5643974,15.6591385,8.2308033
46.8799214,14.9312402,8.4875874
46.1926568,14.2016464,8.7363175
45.5077131,13.4740498,8.9695752
44.8207836,12.7447968,9.1942472
44.1356981,12.0201287,9.4128512
43.4451070,11.2938567,9.6222114
42.7563978,10.5707887,9.8260532
42.0701707,9.8487154,10.0245932
41.3828624,9.1223107,10.2125250
40.6988506,8.3954188,10.1504100
40.0167249,7.6664466,9.8768602
39.3360493,6.9357010,9.3240244
38.6571408,6.2053929,8.7736462
37.9767141,5.4732144,8.2268355
37.2955647,4.7426996,7.6879816
36.6123422,4.0190349,7.1723181
35.9150772,3.3004742,6.6747694
35.2069036,2.6018118,6.2176546
34.4732658,1.9190925,5.7898499
33.7071558,1.2703258,5.3824144
32.8864076,0.6746930,4.9528107
32.0158179,0.1718608,4.5389694
31.0912376,-0.2096219,4.1843053
30.1185250,-0.4306636,3.8057400
29.1666933,-0.4478668,3.7519461
28.2121079,-0.2459229,4.0324732
27.2614640,0.1348254,4.3587552
26.3841030,0.6334813,4.6445790
25.5631556,1.2173310,4.9209917
24.7935035,1.8586647,5.2037264
24.0615204,2.5459172,5.5288913
23.3668304,3.2626148,5.8751326
22.7035640,3.9991413,6.2378367
22.0540867,4.7608783,6.6104029
21.4206808,5.5281692,6.9750080
20.7865062,6.2990865,7.2072997
20.1404007,7.0599241,6.8804799
19.4662827,7.7983019,6.4825999
18.7537950,8.5032265,6.0555432
18.0003062,9.1601970,5.6239116
17.1978951,9.7606623,5.1723618
16.3487916,10.2892503,4.6998574
15.4545083,10.7313676,4.1882832
14.5023914,11.0600804,3.7452277
13.5355267,11.1895542,3.3729112
12.5538449,11.0341335,2.9593709
11.6632927,10.5733818,2.4268679
11.0300379,9.8018693,2.6403391
10.7950560,8.8396522,2.9310876
10.8905680,7.8511154,3.2758926
11.2287873,6.9422842,3.6146631
11.7950505,6.1105447,3.9222182
12.4708155,5.3704663,4.2617216
13.1985393,4.6669135,4.6410972
13.9489827,4.0097198,5.0404252
14.7320706,3.3898919,5.4608033
15.5368730,2.7979138,5.8811396
16.3516101,2.2210906,6.2907049
17.1682965,1.6465756,6.6654402
17.9762278,1.0674037,6.6704325
18.7726653,0.4604725,6.4930234
19.5357280,-0.1847610,6.1296583
20.2546531,-0.8834994,5.7496847
20.9112847,-1.6363986,5.3565877
21.4920663,-2.4505475,4.9221128
21.9677740,-3.3256287,4.4952292
22.3079965,-4.2635350,4.0856920
22.4808519,-5.2466684,3.9670822
22.4700103,-6.2490680,3.9440725
22.2782018,-7.2236063,4.0192046
21.9124084,-8.1641780,4.0563159
21.3911901,-9.0110632,4.1193940
20.7279207,-9.7441685,4.2099795
19.9439447,-10.3611678,4.3166170
19.0788312,-10.8576585,4.4261207
18.1513417,-11.2360761,4.5363216
17.1891233,-11.4913108,4.6468090
16.2000620,-11.6197923,4.7573716
15.2152801,-11.6109520,4.8634463
14.2221507,-11.4715752,4.9644294
13.2486866,-11.2145577,5.0597808
12.3150674,-10.8516668,5.1460412
11.4228878,-10.3945186,5.2281336
10.5805489,-9.8563776,5.3020623
9.7898929,-9.2471721,5.3615122
9.0632347,-8.5685021,5.3972595
8.4065800,-7.8177661,5.3320417
7.8152267,-7.0108052,5.5738022
7.2510717,-6.1850834,6.0038238
6.6604405,-5.3767998,6.2662776
6.0338766,-4.6000897,6.5221799
5.3719093,-3.8537625,6.7721026
4.6796177,-3.1327330,7.0359056
3.9650996,-2.4349752,7.3024831
3.2328115,-1.7555498,7.5718860
2.4870874,-1.0907040,7.8392844
1.7314493,-0.4371495,8.1028809
0.9685001,0.2080196,8.3624640
0.2003740,0.8468248,8.6083934
-0.5719510,1.4806870,8.8466843
-1.3477117,2.1103489,9.0768031
-2.1264202,2.7362871,9.2931659
-2.9076957,3.3590013,9.5031861
-3.6912717,3.9789103,9.7063236
-4.4768006,4.5961759,9.8984609
-5.2642502,5.2111277,10.0853909
-6.0534078,5.8239467,10.2665206
-6.8439900,6.4347666,10.4386823
-7.6359690,7.0438781,10.6064851
-8.4291664,7.6514257,10.7692819
-9.2234017,8.2575292,10.9246417
-10.0186319,8.8623898,11.0762882
-10.8147159,9.4661155,11.2235330
-11.6115577,10.0688330,11.3645352
-12.4090764,10.6706650,11.5023312
-13.2071671,11.2717052,11.6362078
-14.0057989,11.8720922,11.7647906
-14.8048434,12.4718825,11.8905760
-15.6042328,13.0711711,12.0128436
-16.4039813,13.6701087,12.1305828
-17.2039115,14.2686978,12.2458594
-18.0039930,14.8670460,12.3579632
-18.8042703,15.4653099,12.4661155
-19.6045314,16.0634332,12.5720111
-20.4048098,16.6615082,12.6749129
-21.2052079,17.2596353,12.7741882
-22.0055184,17.8576702,12.8713937
-22.8058635,18.4556496,12.9658517
-23.6063878,19.0535523,13.0571137
-24.4068976,19.6512480,13.1465121
-25.2075051,20.2489086,13.2334195
-26.0081146,20.8465541,13.3174464
-26.8087313,21.4441854,13.3997774
-27.6093764,22.0418479,13.4798319
-28.4098252,22.6396079,13.5548106
-29.2098315,23.2381390,13.4325367
-30.0085462,23.8384151,12.8830736
-30.8047160,24.4417971,12.3434064
-31.5978267,25.0494664,11.8076219
-32.3873945,25.6617350,11.2754673
-33.1733306,26.2782736,10.7451918
-33.9562995,26.8990424,10.2159803
-34.7362259,27.5235427,9.6882201
-35.5128762,28.1516609,9.1620789
-36.2861986,28.7845438,8.6373791
-37.0544240,29.4233318,8.1154448
-37.8151107,30.0705190,7.5969508
-38.5653868,30.7307125,7.0805210
-39.2998096,31.4079749,6.5671887
-40.0118120,32.1069304,6.0485947
-40.6942505,32.8374207,5.5279294
-41.3325250,33.6045116,5.0089128
-41.9099624,34.4111146,4.7998246
-42.4201214,35.2799991,3.9052295
